{
  "$schema": "https://learnfram.gitlab.io/learnfram-docs/schema/microservices/schema.json",
  "id": 1,
  "name": "ipstcnam.reductors.dimension_reductor_comp_select",
  "description": "Dimension Reductor PCA",
  "collection": "reductors",
  "contributor": "ipstcnam",
  "version": "1.0.0",
  "port": 8000,
  "parameters": [{
    "name": "pr",
    "type": "integer",
    "description": "Percentile",
    "maximum": 100,
    "minimum": 0
  }],
  "inputs": {
    "name": "fv",
    "description": "List of FeatureVector",
    "type": ["array"],
    "items_type": "feature_vector"
  },
  "outputs": [{
    "name": "fv",
    "description": "List of FeatureVector",
    "type": ["array"],
    "items_type": "feature_vector"
  },{
    "name": "ll",
    "description": "Learning labels",
    "type": ["array"],
    "items_type": "learning_label"
  }],
  "docker_image": "ipstcnam/dimension_deductor_compselect"
}