{
  "$schema": "https://learnfram.gitlab.io/learnfram-docs/schema/microservices/schema.json",
  "id": 1,
  "name": "ipstcnam.denoisers.gaussian_denoiser",
  "description": "Gaussian denoiser",
  "collection": "denoisers",
  "contributor": "ipstcnam",
  "version": "1.0.0",
  "port": 8000,
  "parameters": [
    {
      "name": "size",
      "type": "integer",
      "description": "Size of the gaussian filter",
      "oddValue": true,
      "minimum": 3,
      "default": 3
    },{
      "name": "deviation",
      "type": "integer",
      "description": "Standard deviation of the Gaussian filter",
      "default": 1,
      "minimum": 0
    }
  ],
  "inputs": [
    {
      "name": "x",
      "type": [
        "float"
      ]
    },
    {
      "name": "y",
      "type": [
        "float"
      ]
    },
    {
      "name": "z",
      "type": [
        "float"
      ]
    },
    {
      "name": "t",
      "type": [
        "float"
      ]
    }
  ],
  "outputs": [
    {
      "name": "x",
      "type": [
        "float"
      ]
    },
    {
      "name": "y",
      "type": [
        "float"
      ]
    },
    {
      "name": "z",
      "type": [
        "float"
      ]
    },
    {
      "name": "t",
      "type": [
        "float"
      ]
    }
  ],
  "docker_image": "ipstcnam/gaussian_denoiser"
}